{
  "id": "/apis/visualisationimages",
  "name": "visualisationimages",
  "apiRevision": "1",
  "$ref-description": "",
  "subscriptionRequired": true,
  "serviceUrl": null,
  "path": "visualisationimages",
  "protocols": [
    "https"
  ],
  "authenticationSettings": {
    "oAuth2": null,
    "openid": null
  },
  "subscriptionKeyParameterNames": {
    "header": "Ocp-Apim-Subscription-Key",
    "query": "subscription-key"
  },
  "isCurrent": true,
  "operations": [
    {
      "id": "/apis/visualisationimages/operations/visualisationimages",
      "name": "visualisationimages",
      "method": "GET",
      "urlTemplate": "/*",
      "templateParameters": [],
      "$ref-description": "",
      "request": {
        "queryParameters": [],
        "headers": [],
        "representations": []
      },
      "responses": [],
      "policies": null,
      "$ref-policy": "api-management/policies/apis/visualisationimages__1[Current]/operations/GET____visualisationimagesKHTNT4.xml"
    }
  ],
  "apiSchemas": [],
  "$ref-policy": "api-management/policies/apis/visualisationimages__1[Current].xml",
  "__GitModuleVersion": 15
}