{
  "settings": {
    "RegistrationEnabled": "True",
    "UserRegistrationTerms": null,
    "UserRegistrationTermsEnabled": "False",
    "UserRegistrationTermsConsentRequired": "False",
    "DelegationEnabled": "False",
    "DelegationUrl": "",
    "DelegatedSubscriptionEnabled": "False"
  },
  "$ref-policy": "api-management/policies/global.xml",
  "IntegrationModuleVersion": "15",
  "IntegrationModuleBitsVersion": "0.13.952.0",
  "ExportDate": "2020-04-23T05:49:33.8605893Z",
  "SupportedPreviousBitsVersions": [
    14
  ]
}