{
  "id": "/apis/visualisationtimeseries",
  "name": "visualisationtimeseries",
  "apiRevision": "1",
  "$ref-description": "",
  "subscriptionRequired": true,
  "serviceUrl": null,
  "path": "visualisationtimeseries",
  "protocols": [
    "https"
  ],
  "authenticationSettings": {
    "oAuth2": null,
    "openid": null
  },
  "subscriptionKeyParameterNames": {
    "header": "Ocp-Apim-Subscription-Key",
    "query": "subscription-key"
  },
  "isCurrent": true,
  "operations": [],
  "apiSchemas": [],
  "$ref-policy": "api-management/policies/apis/visualisationtimeseries__16POCEM.xml",
  "__GitModuleVersion": 15
}