{
    "$schema": "https://schema.management.azure.com/schemas/2015-01-01/deploymentParameters.json#",
    "contentVersion": "1.0.0.0",
    "parameters": {
        "<DEPLOY_ENVIRONMENT>_lp_commons_resource_group": {
            "value": "<DEPLOY_ENVIRONMENT>-lp-common"
        },
        "vaults_<DEPLOY_ENVIRONMENT>_lp_kv_main_name": {
            "value": "<DEPLOY_ENVIRONMENT>-lp-kv-main"
        },
        "namespaces_<DEPLOY_ENVIRONMENT>lpsbsmain_name": {
            "value": "<DEPLOY_ENVIRONMENT>lpsbsmain"
        },
        "servicebus_queue_lpqcasegeneration_name": {
            "value": "lpqcasegeneration"
        },
		"servicebus_queue_lpqemailsmsnotification_name": {
            "value": "lpqemailsmsnotification"
        },
		"servicebus_queue_lpcertificatetrack_name": {
           "value": "lpcertificatetrack"
        },
        "servicebus_queue_lpqdevicealarm_name": {
            "value": "lpqdevicealarm"
        },
        "servicebus_queue_lpqdeviceconfig_name": {
            "value": "lpqdeviceconfig"
        },
        "servicebus_queue_lpqunauthorized_name": {
            "value": "lpqunauthorized"
        },
        "servicebus_queue_lpqdevicemetrics_name": {
            "value": "lpqdevicemetrics"
        },
        "storageAccounts_<DEPLOY_ENVIRONMENT>lpsamain_name": {
            "value": "<DEPLOY_ENVIRONMENT>lpsamain"
        },
        "storageAccounts_container_telemetry_name": {
            "value": "telemetryrawarchival"
        },
        "storageAccounts_container_customerdevicemapping_name": {
            "value": "customerdevicemapping"
        },
        "storageAccounts_container_offlineingestion_name": {
            "value": "offlineingestion"
        }
    }
}