{
  "$schema": "http://schema.management.azure.com/schemas/2015-01-01/deploymentTemplate.json#",
  "contentVersion": "1.0.0.0",
  "parameters": {
    "subscriptionId": {
      "type": "string"
    },
    "portalname": {
      "type": "string"
    },
    "apimipaddress": {
      "type": "string"
    },
    "portalhostingEnvironment": {
      "type": "string"
    },
    "portalhostingPlanName": {
      "type": "string"
    },
    "portalalwaysOn": {
      "type": "bool"
    },
    "portalsku": {
      "type": "string"
    },
    "portalskuCode": {
      "type": "string"
    },
    "portalworkerSize": {
      "type": "string"
    },
    "portalworkerSizeId": {
      "type": "string"
    },
    "portalnumberOfWorkers": {
      "type": "string"
    },
    "portalcurrentStack": {
      "type": "string"
    },
    "portalnodeVersion": {
      "type": "string"
    },
    "visualisationmaster_name": {
      "type": "string"
    },
    "visualisationtelemetry_name": {
      "type": "string"
    },
    "visualisationtimeseries_name": {
      "type": "string"
    },
    "location": {
      "type": "string"
    },
    "hostingEnvironment": {
      "type": "string"
    },
    "hostingPlanName": {
      "type": "string"
    },
    "serverFarmResourceGroup": {
      "type": "string"
    },
    "alwaysOn": {
      "type": "bool"
    },
    "storageAccountName": {
      "type": "string"
    },
    "linuxFxVersion": {
      "type": "string"
    },
    "sku": {
      "type": "string"
    },
    "skuCode": {
      "type": "string"
    },
    "workerSize": {
      "type": "string"
    },
    "workerSizeId": {
      "type": "string"
    },
    "numberOfWorkers": {
      "type": "string"
    },
    "appinsghtinstrumentationkey": {
      "type": "string"
    }
  },
  "resources": [
    {
      "apiVersion": "2018-11-01",
      "name": "[parameters('portalname')]",
      "type": "Microsoft.Web/sites",
      "location": "[parameters('location')]",
      "tags": {},
      "dependsOn": [
        "[concat('Microsoft.Web/serverfarms/', parameters('portalhostingPlanName'))]"
      ],
      "properties": {
        "name": "[parameters('portalname')]",
        "siteConfig": {
          "appSettings": [
            {
              "name": "WEBSITE_NODE_DEFAULT_VERSION",
              "value": "[parameters('portalnodeVersion')]"
            },
            {
              "name": "REACT_APP_TEST",
              "value": "true",
              "slotSetting": false
            },
            {
              "name": "REACT_APP_INTERVAL",
              "value": "15000",
              "slotSetting": false
            },
            {
              "name": "REACT_APP_FSIZE",
              "value": "9000000",
              "slotSetting": false
            },
            {
              "name": "REACT_APP_BLOB_URI",
              "value": "https://<DEPLOY_ENVIRONMENT>lpsamain.blob.core.windows.net",
              "slotSetting": false
            },
            {
              "name": "REACT_APP_HOST_URL",
              "value": "https://<DEPLOY_ENVIRONMENT>-lp-apim-main.azure-api.net/",
              "slotSetting": false
            },
            {
              "name": "REACT_APP_SUB_KEY",
              "value": "<APIM_SUBSCRIPTION_KEY>",
              "slotSetting": false
            },
            {
              "name": "REACT_APP_IKEY",
              "value": "[parameters('appinsghtinstrumentationkey')]",
              "slotSetting": false
            },
            {
              "name": "REACT_APP_MKEY",
              "value": "",
              "slotSetting": false
            }
          ],
          "metadata": [
            {
              "name": "CURRENT_STACK",
              "value": "[parameters('portalcurrentStack')]"
            }
          ],
          "nodeVersion": "[parameters('portalnodeVersion')]",
          "alwaysOn": "[parameters('portalalwaysOn')]"
        },
        "serverFarmId": "[concat('/subscriptions/', Subscription().SubscriptionId,'/resourcegroups/', resourceGroup().name, '/providers/Microsoft.Web/serverfarms/', parameters('portalhostingPlanName'))]",
        "hostingEnvironment": "[parameters('portalhostingEnvironment')]",
        "clientAffinityEnabled": true
      }
    },
    {
      "apiVersion": "2018-11-01",
      "name": "[parameters('portalhostingPlanName')]",
      "type": "Microsoft.Web/serverfarms",
      "location": "[parameters('location')]",
      "kind": "",
      "tags": {},
      "dependsOn": [],
      "properties": {
        "name": "[parameters('portalhostingPlanName')]",
        "workerSize": "[parameters('portalworkerSize')]",
        "workerSizeId": "[parameters('portalworkerSizeId')]",
        "numberOfWorkers": "[parameters('portalnumberOfWorkers')]",
        "hostingEnvironment": "[parameters('portalhostingEnvironment')]"
      },
      "sku": {
        "Tier": "[parameters('portalsku')]",
        "Name": "[parameters('portalskuCode')]"
      }
    },
    {
      "apiVersion": "2018-11-01",
      "name": "[parameters('visualisationmaster_name')]",
      "type": "Microsoft.Web/sites",
      "identity": {
        "type": "SystemAssigned"
      },
      "kind": "functionapp",
      "location": "[parameters('location')]",
      "tags": {},
      "dependsOn": [
        "[concat('Microsoft.Web/serverfarms/', parameters('hostingPlanName'))]",
        "[concat('Microsoft.Storage/storageAccounts/', parameters('storageAccountName'))]"
      ],
      "properties": {
        "name": "[parameters('visualisationmaster_name')]",
        "siteConfig": {
          "appSettings": [
            {
              "name": "FUNCTIONS_EXTENSION_VERSION",
              "value": "~2"
            },
			 {
    "name": "APP_VERSION_LABEL",
    "value": "Master APIs"

  },
            {
              "name": "FUNCTIONS_WORKER_RUNTIME",
              "value": "node"
            },
            {
              "name": "AzureWebJobsStorage",
              "value": "[concat('DefaultEndpointsProtocol=https;AccountName=',parameters('storageAccountName'),';AccountKey=',listKeys(resourceId('Microsoft.Storage/storageAccounts', parameters('storageAccountName')), '2019-06-01').keys[0].value,';EndpointSuffix=','core.windows.net')]"
            },
            {
              "name": "WEBSITE_NODE_DEFAULT_VERSION",
              "value": "~10"
            },
            {
              "name": "REFERSH_JWT_EXPIRE_TIME",
              "value": "24h"
            },
            {
              "name": "SALESFORCE_AUTH_TOKEN_SECRET",
              "value": "SALESFORCE-AUTH-TOKEN-SECRET"
            },
            {
              "name": "SALESFORCE_REFRESH_TOKEN_SECRET",
              "value": "SALESFORCE-REFRESH-TOKEN-SECRET"
            },
            {
              "name": "SALESFORCE_QUERY_PROFILE",
              "value": "?q=SELECT+Id+,+Name+,+ProfileId+,+Profile.Name+,+ContactId+,+Contact.Name+,+AccountId+,+Account.Name+,+FullPhotoUrl+FROM+User+WHERE+Username="
            },
            {
              "name": "UNITS",
              "value": "{\"Units\":{\"IPA\":{\"ACLeakCurrentHighLimit\":\"A\",\"BiasPolarity\":\"+,-\",\"BiasVoltage\":\"V\",\"ChargeLoopAverageDCLevel\":\"V\",\"CSARfb\":\"GΩ\",\"DCleakageCurrent\":\"pA\",\"DCLeakCurrentHighLimit\":\"pA\",\"DeltaPRTD\":\"C\",\"DetectorLeakageCurrent\":\"pA\",\"FETBackgateVoltage\":\"V\",\"FETDrainCurrent\":\"Steps(0-15)\",\"FETDrainVoltage\":\"V\",\"LiquidNitrogenLevel\":\"%\",\"LN2HighAlarmLevel\":\"%\",\"LN2LowAlarmLevel\":\"%\",\"MinPRTD2temperature\":\"C\",\"MinPRTDtemperature\":\"C\",\"NominalCSADCLevel\":\"V\",\"PowerSupplyNeg12V\":\"V\",\"PowerSupplyNeg24V\":\"V\",\"PowerSupplyNeg5V\":\"V\",\"PowerSupplyPos12V\":\"V\",\"PowerSupplyPos24V\":\"V\",\"PowerSupplyPos3V\":\"V\",\"PowerSupplyPos5V\":\"V\",\"PreampTemperatureD1\":\"C\",\"PreampTemperatureD2\":\"C\"},\"CP5\":{\"ColdHeadTemperature\":\"C\",\"ColdtipTemperature\":\"C\",\"ColdtipSetpoint\":\"C\",\"CompressorTemperature\":\"C\",\"ControllerTemperature\":\"C\",\"CoolerPower\":\"W\"},\"CCII\":{\"Pressure\":\"PSI\",\"CoolerPower\":\"W\",\"LN2LowAlertLevel\":\"%\",\"LN2LowAlarmLevel\":\"%\",\"LN2HighAlertLevel\":\"%\",\"LN2HighAlarmLevel\":\"%\",\"LiquidNitrogenLevel\":\"%\"}}}"
            },
            {
              "name": "STORAGE_CONNECTION_STRING",
              "value": "STORAGE-CONNECTION-STRING"
            },
            {
              "name": "JWT_EXPIRES_TIME",
              "value": "24h"
            },
            {
              "name": "STORAGE_OFFLINE_CONTAINER",
              "value": "offlineingestion"
            },
            {
              "name": "DB_HOST",
              "value": "DB-HOST"
            },
            {
              "name": "DB_USER",
              "value": "DB-USER"
            },
            {
              "name": "DB_PASS",
              "value": "DB-PASS"
            },
            {
              "name": "DB_NAME",
              "value": "DB-NAME"
            },
            {
              "name": "ALLOWED_DEVICE",
              "value": "{\"IPA\":[\"IPA1\",\"IPA-8\",\"IPA-10\",\"IPA-P8\",\"IPA-P10\",\"IPA-PSL8\",\"IPA-PSL10\"],\"CP5\":[\"CP5-PLUS\"],\"CCII\":[\"CCII-HI\",\"CCII-VD\"],\"Y3D\":[\"LP-VIB-SENSOR\"],\"Meteo\":[\"LP-ENV-SENSOR\"]}"
            },
            {
              "name": "SALESFORCE_AUTH_CLIENTID",
              "value": "SALESFORCE-AUTH-CLIENTID"
            },
            {
              "name": "SALESFORCE_AUTH_SECRETID",
              "value": "SALESFORCE-AUTH-SECRETID"
            },
            {
              "name": "SALESFORCE_USERNAME",
              "value": "SALESFORCE-USERNAME"
            },
            {
              "name": "SALESFORCE_PASSWORD",
              "value": "SALESFORCE-PASSWORD"
            },
            {
              "name": "SALESFORCE_AUTH_URL",
              "value": "SALESFORCE-AUTH-URL"
            },
            {
              "name": "SALESFORCE_QUERY_URL",
              "value": "SALESFORCE-QUERY-URL"
            },
            {
              "name": "SALESFORCE_COMMUNITYUSER_URL",
              "value": "SALESFORCE-COMMUNITYUSER-URL"
            },
            {
              "name": "CCII_PRODUCT_CODE",
              "value": "CCII-HI,CCII-VD"
            },
            {
              "name": "IPA_PRODUCT_CODE",
              "value": "IPA1,IPA-8,IPA-10,IPA-P8,IPA-P10,IPA-PSL8,IPA-PSL10"
            },
            {
              "name": "CP5_PRODUCT_CODE",
              "value": "CP5-PLUS"
            },
            {
              "name": "METEO_PRODUCT_CODE",
              "value": "LP-ENV-SENSOR"
            },
            {
              "name": "Y3D_PRODUCT_CODE",
              "value": "LP-VIB-SENSOR"
            },
            {
              "name": "SALESFORCE_FORGOT_PWD_COMMUNITY_URL",
              "value": "SALESFORCE-FORGOT-PWD-COMMUNITY-URL"
            },
            {
              "name": "SALESFORCE_FORGOT_PWD_STDUSER_URL",
              "value": "SALESFORCE-FORGOT-PWD-STDUSER-URL"
            },
            {
              "name": "USER_TYPE_PROFILE",
              "value": "Customer Community Login User2"
            },
            {
              "name": "SALESFORCE_USER_PERMISSION_URL",
              "value": "SALESFORCE-USER-PERMISSION-URL"
            },
            {
              "name": "RULES_API_URL",
              "value": "https://<DEPLOY_ENVIRONMENT>-lp-af-customalarmalerts.azurewebsites.net/api/updateStaticRules"
            },
            {
              "name": "GENERATE_JWT_URL",
              "value": "https://<DEPLOY_ENVIRONMENT>-lp-visualisationmaster.azurewebsites.net/api/generateJwt"
            },
            {
              "name": "ikey",
              "value": "[parameters('appinsghtinstrumentationkey')]"
            },
            {
              "name": "ENABLE_APP_LOG",
              "value": "true"
            },
            {
              "name": "DOMAIN_ENV",
              "value": "<DEPLOY_ENVIRONMENT>"
            },
            {
              "name": "APIM_STD_USER_LOGIN_URL",
              "value": "https://<DEPLOY_ENVIRONMENT>-lp-apim-main.azure-api.net/stdlogin/?"
            },
            {
              "name": "APIM_SUBSCRIPTION_KEY",
              "value": "APIM-SUBSCRIPTION-KEY"
            },
            {
              "name": "BLOB_ACCESS_PREMISSIONS_EXPIRE",
              "value": "60"
            },
            {
              "name": "BLOB_ACCESS_PREMISSIONS",
              "value": "C,W"
            },
            {
              "name": "AZURE_STORAGE_DL_QUEUE_KEY",
              "value": "lpqaccountdlq"
            },
            {
              "name": "AZURE_CLIENT_ID",
              "value": ""
            },
            {
              "name": "AZURE_CLIENT_SECRET",
              "value": ""
            },
            {
              "name": "AZURE_TENANT_ID",
              "value": ""
            },
            {
              "name": "KEY_VAULT_URI",
              "value": "https://<DEPLOY_ENVIRONMENT>-lp-kv-main.vault.azure.net/"
            }
          ],
          "alwaysOn": "[parameters('alwaysOn')]"
        },
        "serverFarmId": "[concat('/subscriptions/', Subscription().SubscriptionId,'/resourcegroups/', resourceGroup().name, '/providers/Microsoft.Web/serverfarms/', parameters('hostingPlanName'))]",
        "hostingEnvironment": "[parameters('hostingEnvironment')]",
        "clientAffinityEnabled": true,
        "ipSecurityRestrictions": [
          {
            "ipAddress": "[parameters('apimipaddress')]",
            "action": "Allow",
            "tag": "Default",
            "priority": 300,
            "name": "apim"
          },
          {
            "ipAddress": "Any",
            "action": "Deny",
            "priority": 2147483647,
            "name": "Deny all",
            "description": "Deny all access"
          }
        ]
      }
    },
    {
      "apiVersion": "2018-11-01",
      "name": "[parameters('visualisationtelemetry_name')]",
      "type": "Microsoft.Web/sites",
      "kind": "functionapp",
      "identity": {
        "type": "SystemAssigned"
      },
      "location": "[parameters('location')]",
      "tags": {},
      "dependsOn": [
        "[concat('Microsoft.Web/serverfarms/', parameters('hostingPlanName'))]",
        "[concat('Microsoft.Storage/storageAccounts/', parameters('storageAccountName'))]"
      ],
      "properties": {
        "name": "[parameters('visualisationtelemetry_name')]",
        "siteConfig": {
          "appSettings": [
            {
              "name": "FUNCTIONS_EXTENSION_VERSION",
              "value": "~2"
            },
			 {
    "name": "APP_VERSION_LABEL",
    "value": "Telemetry APIs"
 
  },
            {
              "name": "FUNCTIONS_WORKER_RUNTIME",
              "value": "node"
            },
            {
              "name": "AzureWebJobsStorage",
              "value": "[concat('DefaultEndpointsProtocol=https;AccountName=',parameters('storageAccountName'),';AccountKey=',listKeys(resourceId('Microsoft.Storage/storageAccounts', parameters('storageAccountName')), '2019-06-01').keys[0].value,';EndpointSuffix=','core.windows.net')]"
            },
            {
              "name": "WEBSITE_NODE_DEFAULT_VERSION",
              "value": "~10"
            },
            {
              "name": "ikey",
              "value": "[parameters('appinsghtinstrumentationkey')]"
            },
            {
              "name": "ENABLE_APP_LOG",
              "value": "true"
            },
            {
              "name": "DOMAIN_ENV",
              "value": "<DEPLOY_ENVIRONMENT>"
            },
            {
              "name": "STORAGE_CONNECTION_STRING",
              "value": "STORAGE-CONNECTION-STRING"
            },
            {
              "name": "UNITS",
              "value": "{\"Units\":{\"IPA\":{\"ACLeakCurrentHighLimit\":\"A\",\"BiasPolarity\":\"+,-\",\"BiasVoltage\":\"V\",\"ChargeLoopAverageDCLevel\":\"V\",\"CSARfb\":\"GΩ\",\"DCleakageCurrent\":\"pA\",\"DCLeakCurrentHighLimit\":\"pA\",\"DeltaPRTD\":\"C\",\"DetectorLeakageCurrent\":\"pA\",\"FETBackgateVoltage\":\"V\",\"FETDrainCurrent\":\"Steps(0-15)\",\"FETDrainVoltage\":\"V\",\"LiquidNitrogenLevel\":\"%\",\"LN2HighAlarmLevel\":\"%\",\"LN2LowAlarmLevel\":\"%\",\"MinPRTD2temperature\":\"C\",\"MinPRTDtemperature\":\"C\",\"NominalCSADCLevel\":\"V\",\"PowerSupplyNeg12V\":\"V\",\"PowerSupplyNeg24V\":\"V\",\"PowerSupplyNeg5V\":\"V\",\"PowerSupplyPos12V\":\"V\",\"PowerSupplyPos24V\":\"V\",\"PowerSupplyPos3V\":\"V\",\"PowerSupplyPos5V\":\"V\",\"PreampTemperatureD1\":\"C\",\"PreampTemperatureD2\":\"C\",\"UsbInputCurrent\":\"A\",\"UsbInputVoltage\":\"V\",\"PRTD2wireResistance\":\"Ω\",\"PRTDwireResistance\":\"Ω\"},\"CP5\":{\"ColdHeadTemperature\":\"C\",\"ColdtipTemperature\":\"C\",\"ColdtipSetpoint\":\"C\",\"CompressorTemperature\":\"C\",\"ControllerTemperature\":\"C\",\"CoolerPower\":\"W\"},\"CCII\":{\"Pressure\":\"PSI\",\"CoolerPower\":\"W\",\"LN2LowAlertLevel\":\"%\",\"LN2LowAlarmLevel\":\"%\",\"LN2HighAlertLevel\":\"%\",\"LN2HighAlarmLevel\":\"%\",\"LiquidNitrogenLevel\":\"%\"},\"METEO\":{\"HumiditySensor_RawValue\":\"%RH\",\"TemperatureSensor_RawValue\":\"C\",\"PressureSensor_RawValue\":\"mb\"},\"Y3D\":{\"AccelerometerSensor\":\"g\"}}}"
            },
            {
              "name": "JSON_KEYS",
              "value": "{\"UIKeyName\":{\"IPA\":{\"PSMonitor\":\"Power Supply Monitor\",\"DeviceInformation\":\"Device Information \",\"LN2Monitor\":\"LN2 Monitor\",\"DetectorStatus\":\"Detector Status\",\"ACLeakCurrentHighLimit\":\"AC LeakCurrent HighLimit\",\"AmbientTemperature\":\"Ambient Temperature\",\"ChargeLoopAverageDCLevel\":\"ChargeLoop Average DCLevel\",\"ChargeSensitiveAmplifierGain\":\"Charge Sensitive Amplifier Gain\",\"ChargeSensitiveBandwidth\":\"Charge Sensitive Bandwidth\",\"DCLeakCurrentHighLimit\":\"DC Leak Current HighLimit\",\"DCleakageCurrent\":\"DC Leakage Current\",\"DSerialNo\":\"Serial Number\",\"DeltaPRTD\":\"DeltaPRTD\",\"DetectorAcCoupled\":\"DetectorAcCoupled\",\"DetectorLeakageCurrent\":\"Detector Leakage Current\",\"DetectorLeakageCurrentZeroOffset\":\"Detector Leakage Current Zero Offset\",\"DeviceId\":\"DeviceId\",\"DeviceStatus\":\"Device Status\",\"EnableLN2Monitor\":\"Enable LN2 Monitor\",\"FETDrainVoltageADC\":\"FETDrainVoltageADC\",\"FETDrainVoltageDAC\":\"FETDrainVoltageDAC\",\"FlushSettingsToPersistentMemory\":\"Flush Settings To Persistent Memory\",\"FriendlyName\":\"Friendly Name\",\"GWSerialNo\":\"Gateway Serial No\",\"HighCountRate\":\"High Count Rate\",\"HighLevelLN2CalActive\":\"High Level LN2 Cal Active\",\"HvInhibit\":\"Hv Inhibit\",\"HvInhibitModeEnum\":\"Hv Inhibit Mode Enum\",\"HvPullupEnable\":\"Hv Pullup Enable\",\"LN2Consumption\":\"LN2 Consumption\",\"LN2HighAlarmLevel\":\"LN2 High Alarm Level\",\"LN2LowAlarmLevel\":\"LN2 Low Alarm Level\",\"MinPRTDtemperature\":\"Min PRTDtemperature\",\"MinPRTD2temperature\":\"Min PRTD2temperature\",\"NVRamLogEntries\":\"NV Ram Log Entries\",\"OutputPolarityEnum\":\"Output Polarity Enum\",\"LogNVRamTotalRecords\":\"LogNVRamTotalRecords\",\"LowLevelLN2CalActive\":\"LowLevelLN2CalActive\",\"OutputStageDcOffsetADC\":\"OutputStageDcOffsetADC\",\"PRTDwireResistance\":\"PRTDwireResistance\",\"OutputStageDcOffsetDAC\":\"OutputStageDcOffsetDAC\",\"PRTD2Present\":\"PRTD2Present\",\"PRTD2wireResistance\":\"PRTD2wireResistance\",\"PowerSupplyNeg12V\":\"Power Supply Neg 12V\",\"PowerSupplyNeg5V\":\"Power Supply Neg 5V\",\"PowerSupplyNeg24V\":\"Power Supply Neg 24V\",\"PowerSupplyPos5V\":\"Power Supply Pos 5V\",\"PowerSupplyPos12V\":\"Power Supply Pos 12V\",\"PowerSupplyPos24V\":\"Power Supply Pos 24V\",\"PowerSupplyPos3V\":\"Power Supply Pos 3V\",\"PreampTemperatureD1\":\"Preamp TemperatureD1\",\"PreampTemperatureD2\":\"Preamp TemperatureD2\",\"SelectExternalPulser\":\"SelectExternalPulser\",\"SelectPulserPolarity\":\"SelectPulserPolarity\",\"TestPulserClockEnable\":\"TestPulserClockEnable\",\"TestPulserFrequency\":\"TestPulserFrequency\",\"TestPulserReferenceVoltageADC\":\"TestPulserReferenceVoltageADC\",\"TestPulserReferenceVoltageDAC\":\"TestPulserReferenceVoltageDAC\",\"TotalNumberOfLogFiles\":\"Total Number Of Log Files\",\"UsbInputCurrent\":\"UsbInputCurrent\",\"UsbInputVoltage\":\"UsbInputVoltage\",\"FETBackGateVoltageDAC\":\"FET Back Gate VoltageDAC\",\"BiasPolarity\":\"Bias Polarity\",\"CryostatModel\":\"Cryostat Model\",\"DEMFirmwareVersion\":\"DEM Firmware Version\",\"DetectorSerialNumber\":\"Detector Serial Number\",\"DetectorType\":\"Detector Type\",\"AEMFirmwareVersion\":\"AEM Firmware Version\",\"BiasVoltage\":\"Bias Voltage\",\"CSARfb\":\"CSARfb\",\"NominalCSADCLevel\":\"Nominal CSADC Level\",\"PoleZero\":\"Pole Zero\",\"RecommendedAdcOffset\":\"Recommended Adc Offset\",\"RecommendedCoolDownTime\":\"Recommended Cool Down Time\",\"RecommendedFlatTop\":\"Recommended Flat Top\",\"RecommendedGain\":\"Recommended Gain\",\"RecommendedRiseTime\":\"Recommended Rise Time\"},\"CCII\":{\"LIQUIDNITROGEN\":\"LIQUID NITROGEN\",\"LIQUIDSYSTEMINFONITROGEN\":\"LIQUID SYSTEM INFO NITROGEN\",\"SYSTEMINFO\":\"SYSTEM INFORMATION\",\"FirmwareVersion\":\"Firmware Version\",\"AmiSerialNumber\":\"Ami Serial Number\",\"Pressure\":\"Pressure\",\"CoolerPower\":\"Cooler Power\",\"HighLevelLN2CalActive\":\"High Level LN2 Cal Active\",\"LowLevelLN2CalActive\":\"Low Level LN2 Cal Active\",\"LiquidNitrogenLevel\":\"Liquid Nitrogen Level\",\"LN2HighAlarmLevel\":\"LN2 High Alarm Level\",\"LN2LowAlarmLevel\":\"LN2 Low Alarm Level\",\"FriendlyName\":\"Friendly Name\",\"DSerialNo\":\"Serial Number\",\"LN2LowAlertLevel\":\"LN2 Low Alert Level\",\"LN2HighAlertLevel\":\"LN2 High Alert Level\",\"FreeAirCalibrationLevel\":\"Free Air Calibration Level\",\"LowerLimitCalibrationLevel\":\"Lower Limit Calibration Level\",\"UpperLimitCalibrationLevel\":\"Upper Limit Calibration Level\"},\"CP5\":{\"MAINSTATUS\":\"MAIN STATUS\",\"PRIMARYPARAMS\":\"PRIMARY PARAMS\",\"SECONDARYPARAMS\":\"SECONDARY PARAMS\",\"SYSTEMINFO\":\"SYSTEM INFO\",\"CoolerMode\":\"Cooler Mode\",\"CoolerStatus\":\"Cooler Status\",\"HvpsInhibitStatus\":\"Hvps Inhibit Status\",\"VibrationControlStatus\":\"Vibration Control Status\",\"ColdtipSetpoint\":\"ColdtipSetpoint\",\"ColdtipTemperature\":\"Coldtip Temperature\",\"CoolerPower\":\"Cooler Power\",\"ColdHeadTemperature\":\"ColdHead Temperature\",\"CompressorTemperature\":\"Compressor Temperature\",\"ControllerTemperature\":\"Controller Temperature\",\"WireCompensationFactor\":\"Wire Compensation Factor\",\"DSerialNo\":\"Serial Number\"},\"Meteo\":{\"HumiditySensorRawValue\":\"Humidity\",\"TemperatureSensorRawValue\":\"Temperature\",\"PressureSensorRawValue\":\"Pressure\"},\"Y3D\":{\"GYROSCOPESENSOR\":\"GYROSCOPE SENSOR\",\"COMPASSSENSOR\":\"COMPASS SENSOR\",\"ACCELEROMETERSENSOR\":\"ACCELEROMETER SENSOR\",\"TILT1SENSOR\":\"TILT1 SENSOR\",\"TILT2SENSOR\":\"TILT2 SENSOR\",\"COMPASSRawValue\":\"Compass Measurement\",\"ACCELEROMETERSENSORawValue\":\"ACCELEROMETER Value\",\"TILT1RawValue\":\"TILT1 Value\",\"TILT2RawValue\":\"TILT2 Value\",\"PitchValue\":\"Pitch Value\",\"QuaternionWValue\":\"Quaternion W Axis\",\"QuaternionXValue\":\"Quaternion X Axis\",\"QuaternionYValue\":\"Quaternion Y Axis\",\"QuaternionZValue\":\"Quaternion Z Axis\",\"GYROSCOPERawValue\":\"Raw Value\",\"RollValue\":\"Roll Value\",\"ResolutionValue\":\"Resolution Value\",\"XValue\":\"X Axis Value\",\"YValue\":\"X Axis Value\",\"ZValue\":\"X Axis Value\"}}}"
            },
            {
              "name": "AZURE_CLIENT_ID",
              "value": ""
            },
            {
              "name": "AZURE_CLIENT_SECRET",
              "value": ""
            },
            {
              "name": "AZURE_TENANT_ID",
              "value": ""
            },
            {
              "name": "KEY_VAULT_URI",
              "value": "https://<DEPLOY_ENVIRONMENT>-lp-kv-main.vault.azure.net/"
            }
          ],
          "alwaysOn": "[parameters('alwaysOn')]"
        },
        "serverFarmId": "[concat('/subscriptions/', Subscription().SubscriptionId,'/resourcegroups/', resourceGroup().name, '/providers/Microsoft.Web/serverfarms/', parameters('hostingPlanName'))]",
        "hostingEnvironment": "[parameters('hostingEnvironment')]",
        "clientAffinityEnabled": true,
        "ipSecurityRestrictions": [
          {
            "ipAddress": "[parameters('apimipaddress')]",
            "action": "Allow",
            "tag": "Default",
            "priority": 300,
            "name": "apim"
          },
          {
            "ipAddress": "Any",
            "action": "Deny",
            "priority": 2147483647,
            "name": "Deny all",
            "description": "Deny all access"
          }
        ]
      }
    },
    {
      "apiVersion": "2018-11-01",
      "name": "[parameters('visualisationtimeseries_name')]",
      "type": "Microsoft.Web/sites",
      "kind": "functionapp",
      "identity": {
        "type": "SystemAssigned"
      },
      "location": "[parameters('location')]",
      "tags": {},
      "dependsOn": [
        "[concat('Microsoft.Web/serverfarms/', parameters('hostingPlanName'))]",
        "[concat('Microsoft.Storage/storageAccounts/', parameters('storageAccountName'))]"
      ],
      "properties": {
        "name": "[parameters('visualisationtimeseries_name')]",
        "siteConfig": {
          "appSettings": [
            {
              "name": "FUNCTIONS_EXTENSION_VERSION",
              "value": "~2"
            },
			 {
    "name": "APP_VERSION_LABEL",
    "value": "Timeseries APIs"
  
  },
            {
              "name": "FUNCTIONS_WORKER_RUNTIME",
              "value": "node"
            },
            {
              "name": "AzureWebJobsStorage",
              "value": "[concat('DefaultEndpointsProtocol=https;AccountName=',parameters('storageAccountName'),';AccountKey=',listKeys(resourceId('Microsoft.Storage/storageAccounts', parameters('storageAccountName')), '2019-06-01').keys[0].value,';EndpointSuffix=','core.windows.net')]"
            },
            {
              "name": "WEBSITE_NODE_DEFAULT_VERSION",
              "value": "~10"
            },
            {
              "name": "STORAGE_CONNECTION_STRING",
              "value": "STORAGE-CONNECTION-STRING"
            },
            {
              "name": "ikey",
              "value": "[parameters('appinsghtinstrumentationkey')]"
            },
            {
              "name": "ENABLE_APP_LOG",
              "value": "true"
            },
            {
              "name": "DOMAIN_ENV",
              "value": "<DEPLOY_ENVIRONMENT>"
            },
            {
              "name": "PRODUCT_TYPE_METEO",
              "value": "Meteo"
            },
            {
              "name": "PRODUCT_TYPE_Y3D",
              "value": "Y3D"
            },
            {
              "name": "AZURE_CLIENT_ID",
              "value": ""
            },
            {
              "name": "AZURE_CLIENT_SECRET",
              "value": ""
            },
            {
              "name": "AZURE_TENANT_ID",
              "value": ""
            },
            {
              "name": "KEY_VAULT_URI",
              "value": "https://<DEPLOY_ENVIRONMENT>-lp-kv-main.vault.azure.net/"
            },
            {
              "name": "UNITS",
              "value": "{\"Units\":{\"IPA\":{\"ACLeakCurrentHighLimit\":\"A\",\"BiasPolarity\":\"+,-\",\"BiasVoltage\":\"V\",\"ChargeLoopAverageDCLevel\":\"V\",\"CSARfb\":\"GΩ\",\"DCleakageCurrent\":\"pA\",\"DCLeakCurrentHighLimit\":\"pA\",\"DeltaPRTD\":\"C\",\"DetectorLeakageCurrent\":\"pA\",\"FETBackgateVoltage\":\"V\",\"FETDrainCurrent\":\"Steps(0-15)\",\"FETDrainVoltage\":\"V\",\"LiquidNitrogenLevel\":\"%\",\"LN2HighAlarmLevel\":\"%\",\"LN2LowAlarmLevel\":\"%\",\"MinPRTD2temperature\":\"C\",\"MinPRTDtemperature\":\"C\",\"NominalCSADCLevel\":\"V\",\"PowerSupplyNeg12V\":\"V\",\"PowerSupplyNeg24V\":\"V\",\"PowerSupplyNeg5V\":\"V\",\"PowerSupplyPos12V\":\"V\",\"PowerSupplyPos24V\":\"V\",\"PowerSupplyPos3V\":\"V\",\"PowerSupplyPos5V\":\"V\",\"PreampTemperatureD1\":\"C\",\"PreampTemperatureD2\":\"C\",\"UsbInputCurrent\":\"A\",\"UsbInputVoltage\":\"V\",\"PRTD2wireResistance\":\"Ω\",\"PRTDwireResistance\":\"Ω\"},\"CP5\":{\"ColdHeadTemperature\":\"C\",\"ColdtipTemperature\":\"C\",\"ColdtipSetpoint\":\"C\",\"CompressorTemperature\":\"C\",\"ControllerTemperature\":\"C\",\"CoolerPower\":\"W\"},\"CCII\":{\"Pressure\":\"PSI\",\"CoolerPower\":\"W\",\"LN2LowAlertLevel\":\"%\",\"LN2LowAlarmLevel\":\"%\",\"LN2HighAlertLevel\":\"%\",\"LN2HighAlarmLevel\":\"%\",\"LiquidNitrogenLevel\":\"%\"},\"METEO\":{\"HumiditySensor_RawValue\":\"%RH\",\"TemperatureSensor_RawValue\":\"C\",\"PressureSensor_RawValue\":\"mb\"},\"Y3D\":{\"AccelerometerSensor\":\"g\"}}}"
            }
          ],
          "alwaysOn": "[parameters('alwaysOn')]"
        },
        "serverFarmId": "[concat('/subscriptions/', Subscription().SubscriptionId,'/resourcegroups/', resourceGroup().name, '/providers/Microsoft.Web/serverfarms/', parameters('hostingPlanName'))]",
        "hostingEnvironment": "[parameters('hostingEnvironment')]",
        "clientAffinityEnabled": true,
        "ipSecurityRestrictions": [
          {
            "ipAddress": "[parameters('apimipaddress')]",
            "action": "Allow",
            "tag": "Default",
            "priority": 300,
            "name": "apim"
          },
          {
            "ipAddress": "Any",
            "action": "Deny",
            "priority": 2147483647,
            "name": "Deny all",
            "description": "Deny all access"
          }
        ]
      }
    },
    {
      "apiVersion": "2018-11-01",
      "name": "[parameters('hostingPlanName')]",
      "type": "Microsoft.Web/serverfarms",
      "location": "[parameters('location')]",
      "kind": "",
      "tags": {},
      "dependsOn": [],
      "properties": {
        "name": "[parameters('hostingPlanName')]",
        "workerSize": "[parameters('workerSize')]",
        "workerSizeId": "[parameters('workerSizeId')]",
        "numberOfWorkers": "[parameters('numberOfWorkers')]",
        "hostingEnvironment": "[parameters('hostingEnvironment')]"
      },
      "sku": {
        "Tier": "[parameters('sku')]",
        "Name": "[parameters('skuCode')]"
      }
    },
    {
      "apiVersion": "2019-06-01",
      "type": "Microsoft.Storage/storageAccounts",
      "name": "[parameters('storageAccountName')]",
      "location": "[parameters('location')]",
      "sku": {
        "name": "Standard_LRS"
      },
      "properties": {
        "supportsHttpsTrafficOnly": true
      }
    }
  ]
}